…
``` r
remotes::install_github("malcolmbarrett/cidata") 
```

## Example

cidata loads a cleaned version of the NHEFS data used in Causal
Inference, `nhefs`. There is also a complete case version,
`nhefs_complete`, and a codebook for the variables in NHEFS,
`nhefs_codebook`.

``` r
library(cidata)
nhefs
#> # A tibble: 1,629 x 67
#>     seqn  qsmk death yrdth modth dadth   sbp   dbp sex     age race  income
#>    <dbl> <dbl> <dbl> <dbl> <dbl> <dbl> <dbl> <dbl> <fct> <dbl> <fct>  <dbl>
#>  1   233     0     0    NA    NA    NA   175    96 0        42 1         19
#>  2   235     0     0    NA    NA    NA   123    80 0        36 0         18
#>  3   244     0     0    NA    NA    NA   115    75 1        56 1         15
#>  4   245     0     1    85     2    14   148    78 0        68 1         15
#>  5   252     0     0    NA    NA    NA   118    77 0        40 0         18
#>  6   257     0     0    NA    NA    NA   141    83 1        43 1         11
#>  7   262     0     0    NA    NA    NA   132    69 1        56 0         19
#>  8   266     0     0    NA    NA    NA   100    53 1        29 0         22
#>  9   419     0     1    84    10    13   163    79 0        51 0         18
#> 10   420     0     1    86    10    17   184   106 0        43 0         16
#> # … with 1,619 more rows, and 55 more variables: marital <dbl>,
#> #   school <dbl>, education <fct>, ht <dbl>, wt71 <dbl>, wt82 <dbl>,
#> #   wt82_71 <dbl>, birthplace <dbl>, smokeintensity <dbl>,
#> #   smkintensity82_71 <dbl>, smokeyrs <dbl>, asthma <dbl>, bronch <dbl>,
#> #   tb <dbl>, hf <dbl>, hbp <dbl>, pepticulcer <dbl>, colitis <dbl>,
#> #   hepatitis <dbl>, chroniccough <dbl>, hayfever <dbl>, diabetes <dbl>,
#> #   polio <dbl>, tumor <dbl>, nervousbreak <dbl>, alcoholpy <dbl>,
#> #   alcoholfreq <dbl>, alcoholtype <dbl>, alcoholhowmuch <dbl>,
#> #   pica <dbl>, headache <dbl>, otherpain <dbl>, weakheart <dbl>,
…
